GBI6 - BIOINFORMÁTICA
…
library("dplyr")
long_df <- function(table){
  a <- table %>% pivot_longer(!c(bcr_patient_barcode, dataset), names_to= "gen", values_to ="expresion_level")
  a
}

[1 PUNTO] Genere la data df_long utilizandola función long_df.

La tabla resultante tendrá tres columnas: dataset, gen, expresion_level.

df_long <- long_df(df)
df_long <- df_long[,-1]
df_long

## # A tibble: 10,241 x 3
##    dataset gen   expresion_level
##    <chr>   <chr>           <dbl>
##  1 BRCA    GATA3           2.87 
##  2 BRCA    PTEN            1.36 
##  3 BRCA    XBP1            2.98 
##  4 BRCA    ESR1            3.08 
##  5 BRCA    MUC1            1.65 
##  6 BRCA    FN1             1.73 
##  7 BRCA    GAPDH          -1.63 
##  8 BRCA    GATA3           2.17 
##  9 BRCA    PTEN            0.428
## 10 BRCA    XBP1            2.55 
## # ... with 10,231 more rows
…
